…
```r
tibble(k   = ch.26$criteria$loo$diagnostics$pareto_k,
       row = 1:67,
       specimen = paste(d$specno[row], d$taxon[row])) %>% 
  arrange(desc(k))
```

```
## # A tibble: 67 x 3
##        k   row specimen                    
##    <dbl> <int> <chr>                       
##  1 0.693    16 216462 Apomys_sierrae       
##  2 0.495    19 193523 Archboldomys_maximus 
##  3 0.423    62 188313 Soricomys_montanus   
##  4 0.418    26 221833 Chrotomys_mindorensis
##  5 0.417     3 218312 Apomys_banahao       
##  6 0.416    22 193526 Archboldomys_maximus 
##  7 0.409    43 193744 Chrotomys_whiteheadi 
##  8 0.406    60 190968 Soricomys_leonardocoi
##  9 0.364    14 216435 Apomys_sierrae       
## 10 0.357    20 193524 Archboldomys_maximus 
## # ... with 57 more rows
```
…
