…
This analysis (LOO) can tell you, among other things, if there are specimens that are having a strong effect on the model fit. It does this by leaving one specimen out at a time (hence the name) and seeing how well the model can predict the value for that left-out specimen when it is not a part of the model. Specimens that are highly influential have a high Pareto K value. In two of the models here (ch.44 and ch.26, the phylogenetic models), one specimen has a relatively high Pareto K. Let's see if it's the same specimen in both.


```r
tibble(k   = ch.44$criteria$loo$diagnostics$pareto_k,
       row = 1:67,
       specimen = paste(d$specno[row], d$taxon[row])) %>% 
  arrange(desc(k)) # 190968 Soricomys leonardocoi, K = 0.59
```

```
## # A tibble: 67 x 3
##        k   row specimen                    
##    <dbl> <int> <chr>                       
##  1 0.591    60 190968 Soricomys_leonardocoi
##  2 0.468    19 193523 Archboldomys_maximus 
##  3 0.425    14 216435 Apomys_sierrae       
##  4 0.417    62 188313 Soricomys_montanus   
##  5 0.417    22 193526 Archboldomys_maximus 
##  6 0.414    16 216462 Apomys_sierrae       
##  7 0.413    51 167307 Soricomys_kalinga    
##  8 0.410    26 221833 Chrotomys_mindorensis
##  9 0.375    52 167309 Soricomys_kalinga    
## 10 0.367    38 188348 Chrotomys_whiteheadi 
## # ... with 57 more rows
```

```r
tibble(k   = ch.26$criteria$loo$diagnostics$pareto_k,
       row = 1:67,
       specimen = paste(d$specno[row], d$taxon[row])) %>% 
  arrange(desc(k)) # 216462 Apomys sierrae, K = 0.69
```

```
## # A tibble: 67 x 3
##        k   row specimen                    
##    <dbl> <int> <chr>                       
##  1 0.693    16 216462 Apomys_sierrae       
##  2 0.495    19 193523 Archboldomys_maximus 
##  3 0.423    62 188313 Soricomys_montanus   
##  4 0.418    26 221833 Chrotomys_mindorensis
##  5 0.417     3 218312 Apomys_banahao       
##  6 0.416    22 193526 Archboldomys_maximus 
##  7 0.409    43 193744 Chrotomys_whiteheadi 
##  8 0.406    60 190968 Soricomys_leonardocoi
##  9 0.364    14 216435 Apomys_sierrae       
## 10 0.357    20 193524 Archboldomys_maximus 
## # ... with 57 more rows
```
…
Once again the models with multiple predictors (ch.51 and ch.27) have 1 specimen each with excessive influence. Who are they?

```r
tibble(k   = ch.51$criteria$loo$diagnostics$pareto_k,
       row = 1:67,
       specimen = paste(d$specno[row], d$taxon[row])) %>% 
  arrange(desc(k)) # 193526 Archboldomys maximus, K = 0.52
```

```
## # A tibble: 67 x 3
##        k   row specimen                   
##    <dbl> <int> <chr>                      
##  1 0.516    22 193526 Archboldomys_maximus
##  2 0.436    46 189834 Rhynchomys_labo     
##  3 0.379    37 198736 Chrotomys_silaceus  
##  4 0.369    44 189832 Rhynchomys_labo     
##  5 0.354    35 193731 Chrotomys_silaceus  
##  6 0.314    49 189839 Rhynchomys_labo     
##  7 0.311    24 214320 Archboldomys_maximus
##  8 0.308    34 193726 Chrotomys_silaceus  
##  9 0.301    20 193524 Archboldomys_maximus
## 10 0.300    14 216435 Apomys_sierrae      
## # ... with 57 more rows
```

```r
tibble(k   = ch.27$criteria$loo$diagnostics$pareto_k,
       row = 1:67,
       specimen = paste(d$specno[row], d$taxon[row])) %>% 
  arrange(desc(k)) # 216435 Apomys sierrae, K = 0.52
```

```
## # A tibble: 67 x 3
##        k   row specimen                    
##    <dbl> <int> <chr>                       
##  1 0.516    14 216435 Apomys_sierrae       
##  2 0.494     9 236310 Apomys_datae         
##  3 0.488    46 189834 Rhynchomys_labo      
##  4 0.479    32 193720 Chrotomys_silaceus   
##  5 0.463    43 193744 Chrotomys_whiteheadi 
##  6 0.458    22 193526 Archboldomys_maximus 
##  7 0.390     4 218313 Apomys_banahao       
##  8 0.374    31 193708 Chrotomys_silaceus   
##  9 0.338    26 221833 Chrotomys_mindorensis
## 10 0.332    18 216464 Apomys_sierrae       
## # ... with 57 more rows
```
…
Ok so three of them have outliers! Are they all three gonna be different? Is it gonna be that troublemaking Apomys again?


```r
tibble(k   = ch.53$criteria$loo$diagnostics$pareto_k,
       row = 1:67,
       specimen = paste(d$specno[row], d$taxon[row])) %>% 
  arrange(desc(k))
```

```
## # A tibble: 67 x 3
##        k   row specimen                    
##    <dbl> <int> <chr>                       
##  1 0.636    22 193526 Archboldomys_maximus 
##  2 0.592    60 190968 Soricomys_leonardocoi
##  3 0.413    47 189835 Rhynchomys_labo      
##  4 0.366    14 216435 Apomys_sierrae       
##  5 0.361    49 189839 Rhynchomys_labo      
##  6 0.340    48 189836 Rhynchomys_labo      
##  7 0.300    46 189834 Rhynchomys_labo      
##  8 0.289    62 188313 Soricomys_montanus   
##  9 0.227    23 193943 Archboldomys_maximus 
## 10 0.223    26 221833 Chrotomys_mindorensis
## # ... with 57 more rows
```

```r
# 193526 Archboldomys maximus, K = 0.64 AND
# 190968 Soricomys leonardocoi, K = 0.59

tibble(k   = ch.54$criteria$loo$diagnostics$pareto_k,
       row = 1:67,
       specimen = paste(d$specno[row], d$taxon[row])) %>% 
  arrange(desc(k)) # 193526 Archboldomys maximus, K = 0.52
```

```
## # A tibble: 67 x 3
##        k   row specimen                    
##    <dbl> <int> <chr>                       
##  1 0.523    22 193526 Archboldomys_maximus 
##  2 0.425    60 190968 Soricomys_leonardocoi
##  3 0.409    21 193525 Archboldomys_maximus 
##  4 0.368    46 189834 Rhynchomys_labo      
##  5 0.344    41 188354 Chrotomys_whiteheadi 
##  6 0.336    40 188352 Chrotomys_whiteheadi 
##  7 0.316    14 216435 Apomys_sierrae       
##  8 0.315    48 189836 Rhynchomys_labo      
##  9 0.287    23 193943 Archboldomys_maximus 
## 10 0.285    25 221831 Chrotomys_mindorensis
## # ... with 57 more rows
```

```r
tibble(k   = ch.29$criteria$loo$diagnostics$pareto_k,
       row = 1:67,
       specimen = paste(d$specno[row], d$taxon[row])) %>% 
  arrange(desc(k)) # 193526 Archboldomys maximus, K = 0.55
```

```
## # A tibble: 67 x 3
##        k   row specimen                    
##    <dbl> <int> <chr>                       
##  1 0.549    22 193526 Archboldomys_maximus 
##  2 0.432    62 188313 Soricomys_montanus   
##  3 0.424    60 190968 Soricomys_leonardocoi
##  4 0.397    53 175554 Soricomys_kalinga    
##  5 0.388     4 218313 Apomys_banahao       
##  6 0.384    14 216435 Apomys_sierrae       
##  7 0.383    26 221833 Chrotomys_mindorensis
##  8 0.380    19 193523 Archboldomys_maximus 
##  9 0.369    47 189835 Rhynchomys_labo      
## 10 0.364    50 167305 Soricomys_kalinga    
## # ... with 57 more rows
```
…
